4.299999999999999894e-04,2.160000000000000142e+01,0.000000000000000000e+00,4.500000000000000000e+02,4.100000000000000172e-02,0.000000000000000000e+00,4.700000000000000000e+02,8.000000000000000000e+01,8.000000000000000000e+01
6.300000000000000261e-04,2.105000000000000071e+01,0.000000000000000000e+00,6.000000000000000000e+02,3.599999999999999728e-02,0.000000000000000000e+00,4.600000000000000000e+02,8.000000000000000000e+01,8.000000000000000000e+01
3.899999999999999929e-04,2.080999999999999872e+01,0.000000000000000000e+00,3.200000000000000000e+02,2.800000000000000058e-02,0.000000000000000000e+00,3.400000000000000000e+02,8.000000000000000000e+01,8.000000000000000000e+01
6.999999999999999929e-04,2.389999999999999858e+01,0.000000000000000000e+00,2.600000000000000000e+02,5.199999999999999761e-02,0.000000000000000000e+00,3.000000000000000000e+02,5.000000000000000000e+01,5.000000000000000000e+01
7.900000000000000121e-04,2.162000000000000099e+01,0.000000000000000000e+00,2.800000000000000000e+02,6.300000000000000044e-02,0.000000000000000000e+00,2.430000000000000000e+02,5.000000000000000000e+01,5.000000000000000000e+01
5.599999999999999509e-04,1.787000000000000099e+01,0.000000000000000000e+00,3.100000000000000000e+02,4.800000000000000100e-02,0.000000000000000000e+00,1.600000000000000000e+02,5.000000000000000000e+01,5.000000000000000000e+01
2.109999999999999896e-03,1.651000000000000156e+01,0.000000000000000000e+00,3.000000000000000000e+02,8.599999999999999312e-02,0.000000000000000000e+00,1.300000000000000000e+02,3.000000000000000000e+01,3.000000000000000000e+01
4.799999999999999580e-03,2.323000000000000043e+01,0.000000000000000000e+00,3.400000000000000000e+02,8.200000000000000344e-02,0.000000000000000000e+00,1.200000000000000000e+02,3.000000000000000000e+01,3.000000000000000000e+01
1.090799999999999964e-01,1.957999999999999829e+01,0.000000000000000000e+00,2.700000000000000000e+02,9.800000000000000377e-02,0.000000000000000000e+00,8.000000000000000000e+01,3.000000000000000000e+01,3.000000000000000000e+01
9.509999999999999357e-03,2.253999999999999915e+01,0.000000000000000000e+00,3.800000000000000000e+02,9.400000000000000022e-02,0.000000000000000000e+00,5.500000000000000000e+01,3.000000000000000000e+01,3.000000000000000000e+01
