G1,100.0
G2,100.0
G3,100.0
G4,100.0
G5,550.0
G6,185.0
G7,100.0
G8,100.0
G9,100.0
G10,100.0
G11,320.0
G12,414.0
G13,100.0
G14,107.0
G15,100.0
G16,100.0
G17,100.0
G18,100.0
G19,100.0
G20,119.0
G21,304.0
G22,148.0
G23,100.0
G24,100.0
G25,255.0
G26,260.0
G27,100.0
G28,491.0
G29,492.0
G30,805.2
G31,100.0
G32,100.0
G33,100.0
G34,100.0
G35,100.0
G36,100.0
G37,577.0
G38,100.0
G39,104.0
G40,707.0
G41,100.0
G42,100.0
G43,100.0
G44,100.0
G45,352.0
G46,140.0
G47,100.0
G48,100.0
G49,100.0
G50,100.0
G51,136.0
G52,100.0
G53,100.0
G54,100.0
