G1,10.0
G2,10.0
G3,10.0
G4,10.0
G5,55.0
G6,18.5
G7,10.0
G8,10.0
G9,10.0
G10,10.0
G11,32.0
G12,41.400000000000006
G13,10.0
G14,10.700000000000001
G15,10.0
G16,10.0
G17,10.0
G18,10.0
G19,10.0
G20,11.9
G21,30.400000000000002
G22,14.8
G23,10.0
G24,10.0
G25,25.5
G26,26.0
G27,10.0
G28,49.1
G29,49.2
G30,80.52000000000001
G31,10.0
G32,10.0
G33,10.0
G34,10.0
G35,10.0
G36,10.0
G37,57.7
G38,10.0
G39,10.4
G40,70.7
G41,10.0
G42,10.0
G43,10.0
G44,10.0
G45,35.2
G46,14.0
G47,10.0
G48,10.0
G49,10.0
G50,10.0
G51,13.600000000000001
G52,10.0
G53,10.0
G54,10.0
