4.299999999999999894e-04,2.160000000000000142e+01,0.000000000000000000e+00,4.500000000000000000e+02,4.100000000000000172e-02,0.000000000000000000e+00,4.700000000000000000e+02,8.000000000000000000e+01,8.000000000000000000e+01
6.300000000000000261e-04,2.105000000000000071e+01,0.000000000000000000e+00,6.000000000000000000e+02,3.599999999999999728e-02,0.000000000000000000e+00,4.600000000000000000e+02,8.000000000000000000e+01,8.000000000000000000e+01
3.899999999999999929e-04,2.080999999999999872e+01,0.000000000000000000e+00,3.200000000000000000e+02,2.800000000000000058e-02,0.000000000000000000e+00,3.400000000000000000e+02,8.000000000000000000e+01,8.000000000000000000e+01
6.999999999999999929e-04,2.389999999999999858e+01,0.000000000000000000e+00,2.600000000000000000e+02,5.199999999999999761e-02,0.000000000000000000e+00,3.000000000000000000e+02,5.000000000000000000e+01,5.000000000000000000e+01
7.900000000000000121e-04,2.162000000000000099e+01,0.000000000000000000e+00,2.800000000000000000e+02,6.300000000000000044e-02,0.000000000000000000e+00,2.430000000000000000e+02,5.000000000000000000e+01,5.000000000000000000e+01
5.599999999999999509e-04,1.787000000000000099e+01,0.000000000000000000e+00,3.100000000000000000e+02,4.800000000000000100e-02,0.000000000000000000e+00,1.600000000000000000e+02,5.000000000000000000e+01,5.000000000000000000e+01
2.109999999999999896e-03,1.651000000000000156e+01,0.000000000000000000e+00,3.000000000000000000e+02,8.599999999999999312e-02,0.000000000000000000e+00,1.300000000000000000e+02,3.000000000000000000e+01,3.000000000000000000e+01
4.799999999999999580e-03,2.323000000000000043e+01,0.000000000000000000e+00,3.400000000000000000e+02,8.200000000000000344e-02,0.000000000000000000e+00,1.200000000000000000e+02,3.000000000000000000e+01,3.000000000000000000e+01
1.090799999999999964e-01,1.957999999999999829e+01,0.000000000000000000e+00,2.700000000000000000e+02,9.800000000000000377e-02,0.000000000000000000e+00,8.000000000000000000e+01,3.000000000000000000e+01,3.000000000000000000e+01
9.509999999999999357e-03,2.253999999999999915e+01,0.000000000000000000e+00,3.800000000000000000e+02,9.400000000000000022e-02,0.000000000000000000e+00,5.500000000000000000e+01,3.000000000000000000e+01,3.000000000000000000e+01
4.341979613377499009e-04,2.252961806272885426e+01,0.000000000000000000e+00,4.540394864697207140e+02,4.037396935457902153e-02,0.000000000000000000e+00,4.641331978586931086e+02,8.626836801251327813e+01,8.741860416801647204e+01
6.153136313720479955e-04,2.227816241032801869e+01,0.000000000000000000e+00,6.081653473312718461e+02,3.906429579570715876e-02,0.000000000000000000e+00,4.220158955725417513e+02,7.232349435904521329e+01,8.532191752876700264e+01
4.116962265740883452e-04,2.234999056100325987e+01,0.000000000000000000e+00,3.391461481098702961e+02,2.778428442861641950e-02,0.000000000000000000e+00,3.140426609590874705e+02,8.223873634124038290e+01,7.429365259854473891e+01
7.622536483869417475e-04,2.400443497796534231e+01,0.000000000000000000e+00,2.477568918294406046e+02,5.485203037011585070e-02,0.000000000000000000e+00,3.041060369321189114e+02,4.518789800436355364e+01,5.117635497075877282e+01
8.077111241901425640e-04,2.212562260248644819e+01,0.000000000000000000e+00,2.901819367497950566e+02,6.122979954722970741e-02,0.000000000000000000e+00,2.526048761220650647e+02,4.560225471629269833e+01,5.166766715445668012e+01
5.791114413972337513e-04,1.683490727327790992e+01,0.000000000000000000e+00,2.985565577572994016e+02,4.669162340104917458e-02,0.000000000000000000e+00,1.580352484307942404e+02,5.488373838059226273e+01,4.602044810748027714e+01
1.987145991072020081e-03,1.539164402805625897e+01,0.000000000000000000e+00,2.851974961523869183e+02,8.542054529312846645e-02,0.000000000000000000e+00,1.211332091747835165e+02,2.766225084698583103e+01,3.093797753679164231e+01
4.452655633294669117e-03,2.182032165236552856e+01,0.000000000000000000e+00,3.618275396296596114e+02,7.539246092300620761e-02,0.000000000000000000e+00,1.103063617894551101e+02,3.285875679008037764e+01,2.981190720988620768e+01
1.194810198999603917e-01,1.999057505532159951e+01,0.000000000000000000e+00,2.451161407817333213e+02,9.374301646649763065e-02,0.000000000000000000e+00,7.673824316035431536e+01,2.771236631372546455e+01,2.890789907636385436e+01
9.346928215566902010e-03,2.057517691354031797e+01,0.000000000000000000e+00,3.850617105196997159e+02,8.958932242966156922e-02,0.000000000000000000e+00,5.053334561834285665e+01,3.045567897333707563e+01,3.257577718545728374e+01
4.143969299108138057e-04,2.232321284144310525e+01,0.000000000000000000e+00,4.694694483706708752e+02,3.927312996216705127e-02,0.000000000000000000e+00,4.781322158721478104e+02,7.232172073899990039e+01,8.526304046747780774e+01
5.675916300002609377e-04,2.179860761991212925e+01,0.000000000000000000e+00,6.282232826547113973e+02,3.932775752484555382e-02,0.000000000000000000e+00,4.670064747664409879e+02,8.147267090034942782e+01,8.115603049265396862e+01
3.684003673459682157e-04,2.269434138593368999e+01,0.000000000000000000e+00,3.421701550381521884e+02,2.911708394177802556e-02,0.000000000000000000e+00,3.613382517397684524e+02,7.834409185355175964e+01,8.609765115377858535e+01
7.113782021690201636e-04,2.572469502966619359e+01,0.000000000000000000e+00,2.717132225506213103e+02,5.201377357203770119e-02,0.000000000000000000e+00,3.086394119537782217e+02,4.923855048558179703e+01,5.106393214127924551e+01
7.140325253328747186e-04,2.076200950730075334e+01,0.000000000000000000e+00,2.682443460037848695e+02,6.448699440538539773e-02,0.000000000000000000e+00,2.252840395212110707e+02,4.798282325956030547e+01,5.069964910701264671e+01
5.701777492597953200e-04,1.813563843938839426e+01,0.000000000000000000e+00,3.194304027401046824e+02,4.734161698016615266e-02,0.000000000000000000e+00,1.557619798415326784e+02,4.935864925265627079e+01,5.391923355015671859e+01
2.239213863377447974e-03,1.718324010285029146e+01,0.000000000000000000e+00,3.251689568246804356e+02,8.968495035224470502e-02,0.000000000000000000e+00,1.208856559211078405e+02,3.220875634420928435e+01,2.797495760805824716e+01
4.910937181712490308e-03,2.148226764031850422e+01,0.000000000000000000e+00,3.608976891933007209e+02,8.313325211327933506e-02,0.000000000000000000e+00,1.096600078909233105e+02,3.118457263886738318e+01,2.972125609606841223e+01
1.139243649580451018e-01,2.101475318833650974e+01,0.000000000000000000e+00,2.892133804892009721e+02,8.842959605002603807e-02,0.000000000000000000e+00,8.367984899878493366e+01,2.802977806356864221e+01,3.012621963722477503e+01
8.662350853821259439e-03,2.118758433423296950e+01,0.000000000000000000e+00,4.023210254551639764e+02,8.880978413553514139e-02,0.000000000000000000e+00,5.970889422812150116e+01,3.122648641154119531e+01,2.719103357718784864e+01
